{
    "properties": {
        "name" : "Le premier niveau",
        "width": 1600,
        "height": 1600
    },
    "walls": [
        [{"x": 1, "y": 12}, {"x": 50, "y": 12}, {"x": 50, "y": 300}, {"x": 1, "y": 300}]
    ],
    "poi": {
        "player": [
            {"x": 12, "y": 800},
            {"x": 45, "y": 174},
            {"x": 238, "y": 35},
            {"x": 452, "y": 350}

        ],
        "weapons": [
            { 
                "id": 23,
                "x": 400,
                "y": 50
            }
        ],
        "powerup" : [
        ]
    }
}